Laboratório 2: Processamento de Bases de Dados em Lote
…
  return(stats)
}

Quinto, se faz a importação por lote.

flight <- readr::read_csv_chunked(file = "flights.csv",
                                  callback = DataFrameCallback$new(getStats),
                                  chunk_size = 1e6,
                                  col_types = mycols)
camputeStats(flight)

## # A tibble: 1,276 × 7
##     YEAR MONTH   DAY AIRLINE    np     n   prop
##    <int> <int> <int> <chr>   <int> <int>  <dbl>
##  1  2015     1     1 AA        514  1379 0.373 
##  2  2015     1     1 DL        132  1558 0.0847
##  3  2015     1     1 UA        367  1269 0.289 
##  4  2015     1     1 US        201  1028 0.196 
##  5  2015     1     2 AA        649  1508 0.430 
##  6  2015     1     2 DL        406  2261 0.180 
##  7  2015     1     2 UA        493  1411 0.349 
##  8  2015     1     2 US        229  1174 0.195 
##  9  2015     1     3 AA        767  1425 0.538 
## 10  2015     1     3 DL        702  2021 0.347 
## # … with 1,266 more rows
…
